{"fases":[
    {"fase":1, "valor":{"Objetivo":2, "Velocidade":2}, "lock":false},
    {"fase":2, "valor":{"Objetivo":4, "Velocidade":4}, "lock":true},
    {"fase":3, "valor":{"Objetivo":6, "Velocidade":5}, "lock":true}
]}